{"items":[{"id":"1996064726721794050","slug":"stylish-and-spacious-foldable-soft-pet-carrier-for-dogs-and-cats","title":"Stylish And Spacious Foldable Soft Pet Carrier For Dogs And Cats","price":9.95,"thumbImage":"/media/products/1996064726721794050/0_807e43267b88.jpg","resolved_image":"/media/products/1996064726721794050/0_807e43267b88.jpg","pet_type":"dog","variantCount":0,"badges":[],"is_best_seller":false,"is_trending":false},{"id":"1996111912750710786","slug":"dog-bed-warm-plush-pet-bed-with-removable-washable-cover-versatile-dog-mat-for-i","title":"Dog Bed - Warm Plush Pet Bed With Removable Washable Cover, Versatile Dog Mat For Indoor Outdoor Use","price":9.95,"thumbImage":"/media/products/1996111912750710786/0_a2399e5892cf.jpg","resolved_image":"/media/products/1996111912750710786/0_a2399e5892cf.jpg","pet_type":"dog","variantCount":0,"badges":[],"is_best_seller":false,"is_trending":false},{"id":"1993916062320009218","slug":"gardner-small-dog-outdoor-waterproof-portable-breathable-mesh-pet-bed-with-three","title":"Gardner Small Dog Outdoor Waterproof Portable Breathable Mesh Pet Bed With Three-Sided Guardrail Sel","price":9.95,"thumbImage":"/media/products/1993916062320009218/0_4863364b85fb.png","resolved_image":"/media/products/1993916062320009218/0_4863364b85fb.png","pet_type":"dog","variantCount":0,"badges":[],"is_best_seller":false,"is_trending":false},{"id":"1993885211980353537","slug":"pet-tear-stain-removal-powder-natural-and-gentle-formula-eye-and-fur-care-tear-s","title":"Pet Tear Stain Removal Powder - Natural And Gentle Formula, Eye And Fur Care, Tear Stain Removal And","price":9.95,"thumbImage":"/media/products/1993885211980353537/0_a6c4151ed4e1.png","resolved_image":"/media/products/1993885211980353537/0_a6c4151ed4e1.png","pet_type":"dog","variantCount":0,"badges":[],"is_best_seller":false,"is_trending":false}],"total":198,"limit":4,"offset":0,"page":1,"totalPages":50,"hasMore":true}