{"items":[{"id":"1996064726721794050","slug":"stylish-and-spacious-foldable-soft-pet-carrier-for-dogs-and-cats","title":"Stylish And Spacious Foldable Soft Pet Carrier For Dogs And Cats","price":9.95,"thumbImage":"/media/products/1996064726721794050/0_807e43267b88.jpg","resolved_image":"/media/products/1996064726721794050/0_807e43267b88.jpg","pet_type":"dog","variantCount":0,"badges":[],"is_best_seller":false,"is_trending":false}],"total":495,"limit":1,"offset":0,"page":1,"totalPages":495,"hasMore":true}