{"items":[{"id":"1996100265990180865","slug":"outdoor-cat-play-tent-with-tunnel-portable-cat-playhouse-for-indoor-outdoor-cat-","title":"Outdoor Cat Play Tent With Tunnel, Portable Cat Playhouse For Indoor Outdoor, Cat Playpen Enclosed F","price":9.95,"thumbImage":"/media/products/1996100265990180865/0_4f38c1693e63.jpg","resolved_image":"/media/products/1996100265990180865/0_4f38c1693e63.jpg","pet_type":"cat","variantCount":0,"badges":[],"is_best_seller":false,"is_trending":false},{"id":"1998279478282907650","slug":"cat-toys-interactive-toy-for-cat-kitten-toys-lightweight-resin-duck-shape-fun-st","title":"Cat Toys - Interactive Toy For Cat , Kitten Toys, Lightweight Resin Duck Shape Fun Stick For Kitten ","price":9.95,"thumbImage":"/media/products/1998279478282907650/0_8d532d0fe85d.png","resolved_image":"/media/products/1998279478282907650/0_8d532d0fe85d.png","pet_type":"cat","variantCount":0,"badges":[],"is_best_seller":false,"is_trending":false},{"id":"1996395851484209154","slug":"interactive-rolling-cat-ball","title":"Interactive Rolling Cat Ball","price":9.95,"thumbImage":"/media/products/1996395851484209154/0_219edfdc1707.jpg","resolved_image":"/media/products/1996395851484209154/0_219edfdc1707.jpg","pet_type":"cat","variantCount":0,"badges":[],"is_best_seller":false,"is_trending":false},{"id":"1996402356062965762","slug":"interactive-rolling-cat-ball","title":"Interactive Rolling Cat Ball","price":9.95,"thumbImage":"/media/products/1996402356062965762/0_62a23bb9b81e.jpg","resolved_image":"/media/products/1996402356062965762/0_62a23bb9b81e.jpg","pet_type":"cat","variantCount":0,"badges":[],"is_best_seller":false,"is_trending":false}],"total":184,"limit":4,"offset":0,"page":1,"totalPages":46,"hasMore":true}